Getting Started
…
Get Followers

With the ig_get_followers() function you can retrieve a tbl_df of all the users that follow a particular user. Just provide the user_id of the account whose followers you would like to get. NOTE: The Instagram APIs use Ids to retrieve information so instead of giving the account’s username (typically starting with an @symbol), you need to first grab the user_id of that account using the username, then supply it to the ig_get_followers() function.

# Get Justin's Biebers beliebers!
# Side Note: A belieber is a HUGE Justin Bieber fan.
bieber_user_id <- ig_get_user_id("justinbieber")
follower_results <- ig_get_followers(bieber_user_id)
follower_results
#> # A tibble: 2,200 x 9
#>         pk username full_name is_private profile_pic_url profile_pic_id
#>      <dbl> <chr>    <chr>     <lgl>      <chr>           <chr>         
#>  1 8.22e 9 sina_gl  Sina 💫   FALSE      https://sconte… 2022407376241…
#>  2 8.33e 9 rubin_a… Rubin     TRUE       https://sconte… 2060968303209…
#>  3 1.55e 7 andreak… andrea k… FALSE      https://sconte… 1706926841473…
#>  4 9.29e 9 lxscomu… #lxsComu… FALSE      https://sconte… 1946233590280…
#>  5 7.28e 9 tot_sam… Мой прик… FALSE      https://sconte… 1966779582023…
#>  6 5.59e 9 interes… Interest… FALSE      https://sconte… 1535919580806…
#>  7 8.09e 9 medhat_… M. R      TRUE       https://sconte… 1813643900974…
#>  8 5.80e 9 oles.ki… "⚽Oles⚽ … FALSE      https://sconte… 2035064383836…
#>  9 5.44e 9 __n__k_… N A N D … FALSE      https://sconte… 2060384804427…
#> 10 1.43e10 samanth… Samantha… FALSE      https://sconte… <NA>          
#> # … with 2,190 more rows, and 3 more variables: is_verified <lgl>,
#> #   has_anonymous_profile_picture <lgl>, latest_reel_media <int>

In the example above you’ll notice that we didn’t retrieve all 100M+ followers that Justin Bieber has. By default the function only returns the top 10 pages of followers, but you can set the max_pages argument equal to Inf to return all of them. Caution: This might take awhile!

# return all 100M+ followers of Justin Bieber
follower_results <- ig_get_followers(bieber_user_id, max_pages = Inf)

Get Following

With the ig_get_following() function you can retrieve a tbl_df of all the users that a particular user is following. For example, Justin Bieber follows ~100 users. Who are those lucky few?

following_results <- ig_get_following(bieber_user_id)
following_results
#> # A tibble: 181 x 10
#>         pk username full_name is_private profile_pic_url profile_pic_id
#>      <dbl> <chr>    <chr>     <lgl>      <chr>           <chr>         
#>  1 6.96e 9 redcarp… 💕 ZaZa 💕… FALSE      https://sconte… 2035788434706…
#>  2 2.16e 8 officia… Brandon … FALSE      https://sconte… 2027136821162…
#>  3 2.91e 7 nickcan… NICK CAN… FALSE      https://sconte… 1896844691930…
#>  4 4.28e 7 bertsho… Bert Wei… FALSE      https://sconte… <NA>          
#>  5 5.50e 8 benjami… Business… FALSE      https://sconte… 2028127917154…
#>  6 1.89e 8 nickjon… Nick Jon… FALSE      https://sconte… 2041658194653…
#>  7 8.01e 9 lalalal… LISA      FALSE      https://sconte… 2017225651148…
#>  8 1.86e 8 teddysp… Ed Sheer… FALSE      https://sconte… 2050041949683…
#>  9 1.11e10 hdwg1    ""        TRUE       https://instag… <NA>          
#> 10 2.98e 7 kriskli… Kristin … FALSE      https://sconte… 1698661949418…
#> # … with 171 more rows, and 4 more variables: is_verified <lgl>,
#> #   has_anonymous_profile_picture <lgl>, latest_reel_media <int>,
#> #   is_favorite <lgl>
…
